Siesta Version  : 5.0.0-alpha-123-gfb8fd7d02
Architecture    : ----
Compiler version: GNU-11.4.0
Compiler flags  : -fallow-argument-mismatch;-O3 -march=native
PP flags        : ----
Libraries       : ----
Parallelisations: none
GEMM3M support
NetCDF support
NetCDF-4 support
Lua support

Runtime information:
* Directory : /home/fnpedron/Siesta/siesta-dev/Tests/11.ElectronicProperties/work/charge
* Running in serial mode.
>> Start of run:  28-SEP-2023  15:38:34

                           *********************** 
                           *  WELCOME TO SIESTA  * 
                           *********************** 

reinit: Reading from standard input
reinit: Dumping input in INPUT_TMP.08163
************************** Dump of input data file ****************************
%include ../../basejob.fdf
SystemLabel     charge
WriteHirshfeldPop T
WriteVoronoiPop   T
WriteMullikenPop  1
Save-Bader-Charge T
************************** End of input data file *****************************

reinit: -----------------------------------------------------------------------
reinit: System Name: FeN in ZB structure
reinit: -----------------------------------------------------------------------
reinit: System Label: charge
reinit: -----------------------------------------------------------------------

initatom: Reading input for the pseudopotentials and atomic orbitals ----------
Species number:   1 Atomic number:   26 Label: Fe
Species number:   2 Atomic number:    7 Label: N


---- Processing specs for species: Fe
Ground state valence configuration:   4s02  3d06
Reading pseudopotential information in formatted form from:
  /home/fnpedron/Siesta/siesta-dev/Tests/Pseudos/Fe.psf

---- Processing specs for species: N
Ground state valence configuration:   2s02  2p03
Reading pseudopotential information in formatted form from:
  /home/fnpedron/Siesta/siesta-dev/Tests/Pseudos/N.psf

---- Pseudopotential check for Fe

Pseudopotential generated from a fully relativistic atomic calculation
There are spin-orbit semi-local pseudopotentials available

Pseudized shells:
4s( 2.00) rc: 2.00
4p( 0.00) rc: 2.00
3d( 6.00) rc: 2.00
4f( 0.00) rc: 2.00
Valence configuration for ps generation: (assumed as above)

---- Pseudopotential check for N 

Pseudized shells:
2s( 2.00) rc: 1.14
2p( 3.00) rc: 1.14
3d( 0.00) rc: 1.14
4f( 0.00) rc: 1.14
Valence configuration for ps generation: (assumed as above)
For Fe, standard SIESTA heuristics set lmxkb to 3
 (one more than the basis l, including polarization orbitals).
Use PS.lmax or PS.KBprojectors blocks to override.
For N, standard SIESTA heuristics set lmxkb to 3
 (one more than the basis l, including polarization orbitals).
Use PS.lmax or PS.KBprojectors blocks to override.

<basis_specs>
===============================================================================
Fe                   Z=  26    Mass=  55.845        Charge= 0.17977+309
Lmxo=2 Lmxkb= 3    BasisType=split      Semic=F
L=0  Nsemic=0  Cnfigmx=4
          i=1  nzeta=1  polorb=1  (4s)  (to be polarized perturbatively)
            splnorm:   0.15000    
               vcte:    40.000    
               rinn:  -0.90000    
               qcoe:    0.0000    
               qyuk:    0.0000    
               qwid:   0.10000E-01
                rcs:    0.0000    
            lambdas:    1.0000    
L=1  Nsemic=0  Cnfigmx=4
          i=1  nzeta=0  polorb=0  (4p)  (perturbative polarization orbital) (from 4s)
L=2  Nsemic=0  Cnfigmx=3
          i=1  nzeta=1  polorb=0  (3d)
            splnorm:   0.15000    
               vcte:    40.000    
               rinn:  -0.90000    
               qcoe:    0.0000    
               qyuk:    0.0000    
               qwid:   0.10000E-01
                rcs:    0.0000    
            lambdas:    1.0000    
-------------------------------------------------------------------------------
L=0  Nkbl=1  erefs: 0.17977+309
L=1  Nkbl=1  erefs: 0.17977+309
L=2  Nkbl=1  erefs: 0.17977+309
L=3  Nkbl=1  erefs: 0.17977+309
===============================================================================
</basis_specs>

Using PAO.SplitTailNorm
atom: Called for Fe                    (Z =  26)
Maximum radius (at nrval) set to   50.00000 8518

read_vps: Pseudopotential generation method:
read_vps: ATM3      Troullier-Martins                       
Valence charge in pseudo generation:    8.00000

read_vps: Pseudopotential includes a core correction:
read_vps: Pseudo-core for xc-correction

xc_check: Exchange-correlation functional:
xc_check: Ceperley-Alder
xc_check: WARNING: Pseudopotential generated with GGA PBE functional
V l=0 = -2*Zval/r beyond r=  2.7766
V l=1 = -2*Zval/r beyond r=  2.7766
V l=2 = -2*Zval/r beyond r=  2.7766
V l=3 = -2*Zval/r beyond r=  2.7766
All V_l potentials equal beyond r=  1.9874
This should be close to max(r_c) in ps generation
All pots = -2*Zval/r beyond r=  2.7766
Using large-core scheme (fit) for Vlocal

atom: Estimated core radius    2.77662
Fit of Vlocal with continuous 2nd derivative
Fitting vlocal at       1.9934
Choosing vlocal chloc cutoff:***  3.026877
qtot up to nchloc:    8.00002973
atom: Maximum radius for chlocal:    3.02688
atom: Maximum radius for r*vlocal+2*Zval:    3.02688

KBgen: Kleinman-Bylander projectors: 
GHOST: No ghost state for L =  0
   l= 0   rc=  1.989365   el= -0.408929   Ekb=  4.152889   kbcos=  0.267455
GHOST: No ghost state for L =  1
   l= 1   rc=  2.019582   el= -0.109133   Ekb=  2.828557   kbcos=  0.198535
GHOST: No ghost state for L =  2
   l= 2   rc=  1.989365   el= -0.538965   Ekb=-12.703573   kbcos= -0.677960
GHOST: No ghost state for L =  3
   l= 3   rc=  1.993368   el=  0.019554   Ekb= -1.692504   kbcos= -0.007316

KBgen: Total number of Kleinman-Bylander projectors:  16
atom: -------------------------------------------------------------------------

atom: SANKEY-TYPE ORBITALS:

SPLIT: Orbitals with angular momentum L= 0

SPLIT: Basis orbitals for state 4s

SPLIT: PAO cut-off radius determined from an
SPLIT: energy shift=  0.022050 Ry
Split based on tail norm

   izeta = 1
                 lambda =    1.000000
                     rc =    6.166982
                 energy =   -0.383734
                kinetic =    0.372442
    potential(screened) =   -0.756176
       potential(ionic) =   -6.230683

SPLIT: Orbitals with angular momentum L= 2

SPLIT: Basis orbitals for state 3d

SPLIT: PAO cut-off radius determined from an
SPLIT: energy shift=  0.022050 Ry
Split based on tail norm

   izeta = 1
                 lambda =    1.000000
                     rc =    3.655005
                 energy =   -0.515299
                kinetic =    9.551036
    potential(screened) =  -10.066335
       potential(ionic) =  -18.924618

POLgen: Perturbative polarization orbital with L=  1

POLgen: Polarization orbital for state 4s
Split based on tail norm

   izeta = 1
                     rc =    6.166982
                 energy =    0.004215
                kinetic =    0.700246
    potential(screened) =   -0.696031
       potential(ionic) =   -5.862105
atom: Total number of Sankey-type orbitals:  9

atm_pop: Valence configuration (for local Pseudopot. screening):
 4s( 2.00)                                                            
 4p( 0.00)                                                            
 3d( 6.00)                                                            
Vna: chval, zval:    8.00000   8.00000

Vna:  Cut-off radius for the neutral-atom potential:   6.166982
comcore: Pseudo-core radius Rcore=  3.744030

atom: _________________________________________________________________________

<basis_specs>
===============================================================================
N                    Z=   7    Mass=  14.007        Charge= 0.17977+309
Lmxo=2 Lmxkb= 3    BasisType=split      Semic=F
L=0  Nsemic=0  Cnfigmx=2
          i=1  nzeta=1  polorb=0  (2s)
            splnorm:   0.15000    
               vcte:    40.000    
               rinn:  -0.90000    
               qcoe:    0.0000    
               qyuk:    0.0000    
               qwid:   0.10000E-01
                rcs:    0.0000    
            lambdas:    1.0000    
L=1  Nsemic=0  Cnfigmx=2
          i=1  nzeta=1  polorb=1  (2p)  (to be polarized perturbatively)
            splnorm:   0.15000    
               vcte:    40.000    
               rinn:  -0.90000    
               qcoe:    0.0000    
               qyuk:    0.0000    
               qwid:   0.10000E-01
                rcs:    0.0000    
            lambdas:    1.0000    
L=2  Nsemic=0  Cnfigmx=3
          i=1  nzeta=0  polorb=0  (3d)  (perturbative polarization orbital) (from 2p)
-------------------------------------------------------------------------------
L=0  Nkbl=1  erefs: 0.17977+309
L=1  Nkbl=1  erefs: 0.17977+309
L=2  Nkbl=1  erefs: 0.17977+309
L=3  Nkbl=1  erefs: 0.17977+309
===============================================================================
</basis_specs>

Using PAO.SplitTailNorm
atom: Called for N                     (Z =   7)
Maximum radius (at nrval) set to   50.00000 8518

read_vps: Pseudopotential generation method:
read_vps: ATM 3.2.2 Troullier-Martins                       
Valence charge in pseudo generation:    5.00000

xc_check: Exchange-correlation functional:
xc_check: Ceperley-Alder
V l=0 = -2*Zval/r beyond r=  1.2063
V l=1 = -2*Zval/r beyond r=  1.2015
V l=2 = -2*Zval/r beyond r=  1.2015
V l=3 = -2*Zval/r beyond r=  1.1966
All V_l potentials equal beyond r=  1.1321
This should be close to max(r_c) in ps generation
All pots = -2*Zval/r beyond r=  1.2063
Using small-core scheme (local charge) for Vlocal

VLOCAL_FROM_CHLOCAL: 99.0% of the norm of Vloc inside     33.871 Ry
VLOCAL_FROM_CHLOCAL: 99.9% of the norm of Vloc inside     77.193 Ry
atom: Maximum radius for chlocal:    1.36414
atom: Maximum radius for r*vlocal+2*Zval:    1.24587

KBgen: Kleinman-Bylander projectors: 
GHOST: No ghost state for L =  0
   l= 0   rc=  1.390501   el= -1.352238   Ekb=  9.593565   kbcos=  0.296327
GHOST: No ghost state for L =  1
   l= 1   rc=  1.396114   el= -0.532622   Ekb= -6.588813   kbcos= -0.328649
GHOST: No ghost state for L =  2
   l= 2   rc=  1.594528   el=  0.013293   Ekb= -1.766625   kbcos= -0.004121
GHOST: No ghost state for L =  3
   l= 3   rc=  1.716040   el=  0.019581   Ekb= -0.700989   kbcos= -0.000404

KBgen: Total number of Kleinman-Bylander projectors:  16
atom: -------------------------------------------------------------------------

atom: SANKEY-TYPE ORBITALS:

SPLIT: Orbitals with angular momentum L= 0

SPLIT: Basis orbitals for state 2s

SPLIT: PAO cut-off radius determined from an
SPLIT: energy shift=  0.022050 Ry
Split based on tail norm

   izeta = 1
                 lambda =    1.000000
                     rc =    3.604053
                 energy =   -1.328130
                kinetic =    1.284023
    potential(screened) =   -2.612154
       potential(ionic) =   -8.209162

SPLIT: Orbitals with angular momentum L= 1

SPLIT: Basis orbitals for state 2p

SPLIT: PAO cut-off radius determined from an
SPLIT: energy shift=  0.022050 Ry
Split based on tail norm

   izeta = 1
                 lambda =    1.000000
                     rc =    4.222657
                 energy =   -0.508556
                kinetic =    3.831176
    potential(screened) =   -4.339732
       potential(ionic) =   -9.826027

POLgen: Perturbative polarization orbital with L=  2

POLgen: Polarization orbital for state 2p
Split based on tail norm

   izeta = 1
                     rc =    4.222657
                 energy =    1.888029
                kinetic =    3.670147
    potential(screened) =   -1.782119
       potential(ionic) =   -6.319844
atom: Total number of Sankey-type orbitals:  9

atm_pop: Valence configuration (for local Pseudopot. screening):
 2s( 2.00)                                                            
 2p( 3.00)                                                            
 3d( 0.00)                                                            
Vna: chval, zval:    5.00000   5.00000

Vna:  Cut-off radius for the neutral-atom potential:   4.222657

atom: _________________________________________________________________________

prinput: Basis input 

PAO.BasisType split     

%block ChemicalSpeciesLabel
    1   26 Fe                      # Species index, atomic number, species label
    2    7 N                       # Species index, atomic number, species label
%endblock ChemicalSpeciesLabel

%block PAO.Basis                 # Define Basis set
# WARNING: This information might be incomplete!
Fe                    2                    # Species label, number of l-shells
 n=4   0   1 P   1                   # n, l, Nzeta, Polarization, NzetaPol
   6.167   
   1.000   
 n=3   2   1                         # n, l, Nzeta 
   3.655   
   1.000   
N                     2                    # Species label, number of l-shells
 n=2   0   1                         # n, l, Nzeta 
   3.604   
   1.000   
 n=2   1   1 P   1                   # n, l, Nzeta, Polarization, NzetaPol
   4.223   
   1.000   
%endblock PAO.Basis

prinput: ----------------------------------------------------------------------

Dumping basis to NetCDF file Fe.ion.nc
Dumping basis to NetCDF file N.ion.nc
coor:   Atomic-coordinates input format  =     Fractional

siesta: Atomic coordinates (Bohr) and species
siesta:      0.00000   0.00000   0.00000  1        1
siesta:      2.03618   2.03618   2.03618  2        2

siesta: System type = bulk      

initatomlists: Number of atoms, orbitals, and projectors:      2    18    32

siesta: ******************** Simulation parameters ****************************
siesta:
siesta: The following are some of the parameters of the simulation.
siesta: A complete list of the parameters used, including default values,
siesta: can be found in file out.fdf
siesta:
redata: Spin configuration                          = none
redata: Number of spin components                   = 1
redata: Time-Reversal Symmetry                      = T
redata: Spin spiral                                 = F
redata: Long output                                 =   F
redata: Number of Atomic Species                    =        2
redata: Charge density info will appear in .RHO file
redata: Write Mulliken Pop.                         = Atomic and Orbital charges
redata: Matel table size (NRTAB)                    =     1024
redata: Mesh Cutoff                                 =    50.0000 Ry
redata: Net charge of the system                    =     0.0000 |e|
redata: Min. number of SCF Iter                     =        0
redata: Max. number of SCF Iter                     =     1000
redata: SCF convergence failure will abort job
redata: SCF mix quantity                            = Hamiltonian
redata: Mix DM or H after convergence               =   F
redata: Recompute H after scf cycle                 =   F
redata: Mix DM in first SCF step                    =   T
redata: Write Pulay info on disk                    =   F
redata: New DM Occupancy tolerance                  = 0.000000000001
redata: No kicks to SCF
redata: DM Mixing Weight for Kicks                  =     0.5000
redata: Require Harris convergence for SCF          =   F
redata: Harris energy tolerance for SCF             =     0.000100 eV
redata: Require DM convergence for SCF              =   T
redata: DM tolerance for SCF                        =     0.000100
redata: Require EDM convergence for SCF             =   F
redata: EDM tolerance for SCF                       =     0.001000 eV
redata: Require H convergence for SCF               =   T
redata: Hamiltonian tolerance for SCF               =     0.001000 eV
redata: Require (free) Energy convergence for SCF   =   F
redata: (free) Energy tolerance for SCF             =     0.000100 eV
redata: Using DFT-D3 dispersion                     =   F
redata: Using Saved Data (generic)                  =   F
redata: Use continuation files for DM               =   F
redata: Neglect nonoverlap interactions             =   F
redata: Method of Calculation                       = Diagonalization
redata: Electronic Temperature                      =   299.9863 K
redata: Fix the spin of the system                  =   F
redata: Max. number of TDED Iter                    =        1
redata: Number of TDED substeps                     =        3
redata: Dynamics option                             = Single-point calculation
mix.SCF: Pulay mixing                            = Pulay
mix.SCF:    Variant                              = stable
mix.SCF:    History steps                        = 3
mix.SCF:    Linear mixing weight                 =     0.300000
mix.SCF:    Mixing weight                        =     0.300000
mix.SCF:    SVD condition                        = 0.1000E-07
redata: Save all siesta data in one NC              =   F
redata: ***********************************************************************

%block SCF.Mixers
  Pulay
%endblock SCF.Mixers

%block SCF.Mixer.Pulay
  # Mixing method
  method pulay
  variant stable

  # Mixing options
  weight 0.3000
  weight.linear 0.3000
  history 3
%endblock SCF.Mixer.Pulay

DM_history_depth set to one: no extrapolation allowed by default for geometry relaxation
Size of DM history Fstack: 1
Total number of electrons:    13.000000
Total ionic charge:    13.000000
 Kpoints in:           32 . Kpoints trimmed:           32

siesta: k-grid: Number of k-points = 32
siesta: k-points from cutoff
siesta: k-cutoff (effective) =     6.095 Ang
siesta: k-point supercell and displacements
siesta: k-grid:     0     4     0      0.500
siesta: k-grid:     0     0     4      0.500
siesta: k-grid:     4     0     0      0.500

diag: Algorithm                                     = D&C
diag: Used triangular part                          = Lower
diag: Absolute tolerance                            =  0.100E-15
diag: Orthogonalization factor                      =  0.100E-05
diag: Memory factor                                 =  1.0000

superc: Internal auxiliary supercell:     5 x     5 x     5  =     125
superc: Number of atoms, orbitals, and projectors:    250   2250   4000


ts: **************************************************************
ts: Save H and S matrices                           =    F
ts: Save DM and EDM matrices                        =    F
ts: Only save the overlap matrix S                  =    F
ts: **************************************************************

************************ Begin: TS CHECKS AND WARNINGS ************************
************************ End: TS CHECKS AND WARNINGS **************************


                     ====================================
                        Single-point calculation
                     ====================================

superc: Internal auxiliary supercell:     5 x     5 x     5  =     125
superc: Number of atoms, orbitals, and projectors:    250   2250   4000

outcell: Unit cell vectors (Ang):
        2.155000    2.155000    0.000000
        0.000000    2.155000    2.155000
        2.155000    0.000000    2.155000

outcell: Cell vector modules (Ang)   :    3.047630    3.047630    3.047630
outcell: Cell angles (23,13,12) (deg):     60.0000     60.0000     60.0000
outcell: Cell volume (Ang**3)        :     20.0157
<dSpData1D:S at geom step 0
  <sparsity:sparsity for geom step 0
    nrows_g=18 nrows=18 sparsity=42.4012 nnzs=13738, refcount: 7>
  <dData1D:(new from dSpData1D) n=13738, refcount: 1>
refcount: 1>
new_DM -- step:     1
Initializing Density Matrix...
DM filled with atomic data:
<dSpData2D:DM initialized from atoms
  <sparsity:sparsity for geom step 0
    nrows_g=18 nrows=18 sparsity=42.4012 nnzs=13738, refcount: 8>
  <dData2D:DM n=13738 m=1, refcount: 1>
refcount: 1>
No. of atoms with KB's overlaping orbs in proc 0. Max # of overlaps:      38     189

InitMesh: MESH = 12 x 12 x 12 = 1728
InitMesh: Mesh cutoff (required, used) =    50.000    64.273 Ry
New grid distribution [1]: sub = 2

stepf: Fermi-Dirac step function

siesta: Program's energy decomposition (eV):
siesta: Ebs     =      -127.013863
siesta: Eions   =      1237.601572
siesta: Ena     =       168.314031
siesta: Ekin    =       912.597235
siesta: Enl     =      -444.271280
siesta: Eso     =         0.000000
siesta: Edftu   =         0.000000
siesta: DEna    =        -1.563149
siesta: DUscf   =         3.814249
siesta: DUext   =         0.000000
siesta: Ex      =      -405.287548
siesta: Ec      =       -39.812009
siesta: Exc     =      -445.099556
siesta: EbV     =         0.000000
siesta: eta*DQ  =         0.000000
siesta: Emadel  =         0.000000
siesta: Emeta   =         0.000000
siesta: Emolmec =         0.000000
siesta: Ekinion =         0.000000
siesta: Eharris =     -1046.663066
siesta: Etot    =     -1043.810043
siesta: FreeEng =     -1043.819287

        iscf     Eharris(eV)        E_KS(eV)     FreeEng(eV)     dDmax    Ef(eV) dHmax(eV)
   scf:    1    -1046.663066    -1043.810043    -1043.819287  1.759247 -2.830942  5.896172
timer: Routine,Calls,Time,% = IterSCF        1       0.022   1.11
   scf:    2    -1042.239062    -1045.456460    -1045.461696  0.291135 -4.135494  2.830435
   scf:    3    -1046.234346    -1046.242181    -1046.251860  0.118766 -3.781989  0.540663
   scf:    4    -1046.229770    -1046.250784    -1046.259531  0.031190 -3.989980  0.356086
   scf:    5    -1046.259030    -1046.258556    -1046.267878  0.010371 -3.927652  0.028223
   scf:    6    -1046.258807    -1046.258684    -1046.268033  0.002056 -3.928581  0.021037
   scf:    7    -1046.258801    -1046.258758    -1046.268173  0.005557 -3.928677  0.005641
   scf:    8    -1046.258785    -1046.258772    -1046.268176  0.000430 -3.927120  0.001710
   scf:    9    -1046.258779    -1046.258775    -1046.268177  0.000290 -3.926751  0.000510
   scf:   10    -1046.258775    -1046.258775    -1046.268177  0.000027 -3.926795  0.000217

SCF Convergence by DM+H criterion
max |DM_out - DM_in|         :     0.0000270249
max |H_out - H_in|      (eV) :     0.0002169939
SCF cycle converged after 10 iterations

Using DM_out to compute the final energy and forces
No. of atoms with KB's overlaping orbs in proc 0. Max # of overlaps:      38     189

siesta: E_KS(eV) =            -1046.2588

siesta: E_KS - E_eggbox =     -1046.2588

siesta: Atomic forces (eV/Ang):
----------------------------------------
   Tot    0.009399    0.009399    0.009399
----------------------------------------
   Max    0.415285
   Res    0.410612    sqrt( Sum f_i^2 / 3N )
----------------------------------------
   Max    0.415285    constrained

Stress tensor Voigt[x,y,z,yz,xz,xy] (kbar):      212.11      212.11      212.11        9.35        9.35        9.35
(Free)E + p*V (eV/cell)    -1048.9181
Target enthalpy (eV/cell)    -1046.2682

mulliken: Atomic and Orbital Populations:

Species: Fe                  
Atom  Qatom  Qorb
               4s      3dxy    3dyz    3dz2    3dxz    3dx2-y2 4Ppy    4Ppz    
               4Ppx    
   1  7.437   0.520   1.033   1.033   1.517   1.033   1.517   0.261   0.261
              0.261

Species: N                   
Atom  Qatom  Qorb
               2s      2py     2pz     2px     3Pdxy   3Pdyz   3Pdz2   3Pdxz   
               3Pdx2-y2
   2  5.563   1.616   1.270   1.270   1.270   0.022   0.022   0.035   0.022
              0.035

mulliken: Qtot =       13.000

siesta: Program's energy decomposition (eV):
siesta: Ebs     =      -120.207098
siesta: Eions   =      1237.601572
siesta: Ena     =       168.314031
siesta: Ekin    =       953.621833
siesta: Enl     =      -485.156512
siesta: Eso     =         0.000000
siesta: Edftu   =         0.000000
siesta: DEna    =         4.337242
siesta: DUscf   =         0.476551
siesta: DUext   =         0.000000
siesta: Ex      =      -410.282440
siesta: Ec      =       -39.967907
siesta: Exc     =      -450.250347
siesta: EbV     =         0.000000
siesta: eta*DQ  =         0.000000
siesta: Emadel  =         0.000000
siesta: Emeta   =         0.000000
siesta: Emolmec =         0.000000
siesta: Ekinion =         0.000000
siesta: Eharris =     -1046.258775
siesta: Etot    =     -1046.258775
siesta: FreeEng =     -1046.268177

siesta: Final energy (eV):
siesta:  Band Struct. =    -120.207098
siesta:       Kinetic =     953.621833
siesta:       Hartree =     160.117728
siesta:         Edftu =       0.000000
siesta:       Eso     =       0.000000
siesta:    Ext. field =       0.000000
siesta:         Exch. =    -410.282440
siesta:         Corr. =     -39.967907
siesta:     Bulk bias =       0.000000
siesta:   Exch.-corr. =    -450.250347
siesta:  Ion-electron =   -1119.666019
siesta:       Ion-ion =    -590.081969
siesta:       Ekinion =       0.000000
siesta: D3 dispersion =       0.000000
siesta:         Total =   -1046.258775
siesta:         Fermi =      -3.926795

siesta: Atomic forces (eV/Ang):
siesta:      1   -0.405886   -0.405886   -0.405885
siesta:      2    0.415285    0.415285    0.415285
siesta: ----------------------------------------
siesta:    Tot    0.009399    0.009399    0.009399

siesta: Stress tensor (static) (eV/Ang**3):
siesta:     0.132391    0.005835    0.005835
siesta:     0.005835    0.132391    0.005835
siesta:     0.005835    0.005835    0.132391

siesta: Cell volume =         20.015748 Ang**3

siesta: Pressure (static):
siesta:                Solid            Molecule  Units
siesta:          -0.00144192         -0.00168265  Ry/Bohr**3
siesta:          -0.13239064         -0.15449353  eV/Ang**3
siesta:        -212.11319071       -247.52592137  kBar
(Free)E+ p_basis*V_orbitals  =       -1045.713927
(Free)Eharris+ p_basis*V_orbitals  =       -1045.713927

Hirshfeld Atomic Populations:
Atom #     dQatom  Atom pop  Species
     1    0.12554   7.87446  Fe
     2   -0.12601   5.12601  N

Voronoi Atomic Populations:
Atom #     dQatom  Atom pop  Species
     1    0.16608   7.83392  Fe
     2   -0.16685   5.16685  N
 
Bader Analysis core-charge setup. Radii (standard, H):  1.000 0.600

cite: Please see "charge.bib" for an exhaustive BiBTeX file.
cite: Please clearly indicate Siesta version in published work: 5.0.0-alpha-123-gfb8fd7d02
cite: This calculation has made use of the following articles
cite: which are encouraged to be cited in a published work.
        Primary SIESTA paper
          DOI: www.doi.org/10.1088/0953-8984/14/11/302


timer: Elapsed wall time (sec) =       2.268
timer: CPU execution times (sec):

Routine            Calls   Time/call    Tot.time        %
siesta                 1       2.267       2.267   100.00
Setup                  1       0.075       0.075     3.30
bands                  1       0.000       0.000     0.00
KSV_init               1       0.000       0.000     0.00
IterGeom               1       2.182       2.182    96.28
geom_init              1       1.904       1.904    84.02
state_init             1       0.182       0.182     8.03
hsparse                1       0.002       0.002     0.11
overlap                1       0.172       0.172     7.57
Setup_H0               1       1.715       1.715    75.66
naefs                  2       0.000       0.000     0.02
MolMec                 2       0.000       0.000     0.00
kinefsm                2       0.085       0.170     7.51
nlefsm                 2       0.782       1.565    69.05
DHSCF_Init             1       0.014       0.014     0.62
DHSCF1                 1       0.001       0.001     0.05
INITMESH               1       0.000       0.000     0.00
DHSCF2                 1       0.013       0.013     0.56
REMESH                 1       0.002       0.002     0.11
REORD                 44       0.000       0.000     0.00
PHION                  1       0.009       0.009     0.38
COMM_BSC              56       0.000       0.000     0.00
POISON                14       0.000       0.000     0.02
fft                   28       0.000       0.000     0.01
setup_H               11       0.006       0.069     3.06
DHSCF                 13       0.008       0.100     4.41
DHSCF3                13       0.006       0.084     3.70
rhoofd                13       0.003       0.042     1.84
XC                    13       0.000       0.002     0.08
GXC-CellXC            13       0.000       0.002     0.08
gridxc@cellXC         13       0.000       0.002     0.07
vmat                  12       0.003       0.034     1.51
IterSCF               10       0.022       0.219     9.66
compute_dm            10       0.016       0.155     6.85
diagon                10       0.015       0.155     6.84
c-eigval             320       0.000       0.048     2.12
c-buildHS            320       0.000       0.041     1.81
cdiag                640       0.000       0.020     0.90
cdiag1               640       0.000       0.001     0.05
cdiag2               640       0.000       0.003     0.13
cdiag3               640       0.000       0.014     0.62
c-eigvec             320       0.000       0.055     2.41
cdiag4               320       0.000       0.000     0.02
c-buildD             320       0.000       0.051     2.26
MIXER                  9       0.000       0.001     0.03
PostSCF                1       0.059       0.059     2.59
DHSCF4                 1       0.016       0.016     0.71
dfscf                  1       0.014       0.014     0.64
overfsm                1       0.002       0.002     0.07
state_analysis         1       0.000       0.000     0.01
siesta_move            1       0.000       0.000     0.00
Analysis               1       0.009       0.009     0.41
optical                1       0.000       0.000     0.00
partial-charges        1       0.004       0.004     0.17
  

>> End of run:  28-SEP-2023  15:38:36
Job completed
