Siesta Version  : 4.0-root-345-g67246b9d8-dirty
Architecture    : ----
Compiler version: GNU-12.3.0
Compiler flags  : -fallow-argument-mismatch;-O3 -march=native
PP flags        : ----
Libraries       : ----
Parallelisations: MPI
NetCDF support
NetCDF-4 support
Lua support

Runtime information:
* Directory : /Users/albertog/code/GITLAB/Siesta/garalb/Linked/streamline-build/_elsi/Tests/12.Solvers/sih-elsi_mpi_np4/work
* Running on 4 nodes in parallel.
>> Start of run:  27-SEP-2023  11:25:12

                           *********************** 
                           *  WELCOME TO SIESTA  * 
                           *********************** 

reinit: Reading from file ../../sih-elsi.fdf

reinit: -----------------------------------------------------------------------
reinit: System Name: H in 64-atom silicon - ELSI solver
reinit: -----------------------------------------------------------------------
reinit: System Label: sih-elsi
reinit: -----------------------------------------------------------------------

initatom: Reading input for the pseudopotentials and atomic orbitals ----------
Species number:   1 Atomic number:   14 Label: Si
Species number:   2 Atomic number:    1 Label: H


---- Processing specs for species: Si
Ground state valence configuration:   3s02  3p02
Reading pseudopotential information in formatted form from:
  /Users/albertog/G/Siesta/garalb/Linked/streamline-build/Tests/Pseudos/Si.psf

---- Processing specs for species: H
Ground state valence configuration:   1s01
Reading pseudopotential information in formatted form from:
  /Users/albertog/G/Siesta/garalb/Linked/streamline-build/Tests/Pseudos/H.psf

---- Pseudopotential check for H 

Pseudized shells:
1s( 1.00) rc: 1.25
2p( 0.00) rc: 1.25
3d( 0.00) rc: 1.25
4f( 0.00) rc: 1.25
Valence configuration for ps generation: (assumed as above)

---- Pseudopotential check for Si

Pseudized shells:
3s( 2.00) rc: 1.89
3p( 2.00) rc: 1.89
3d( 0.00) rc: 1.89
4f( 0.00) rc: 1.89
Valence configuration for ps generation: (assumed as above)
For Si, standard SIESTA heuristics set lmxkb to 3
 (one more than the basis l, including polarization orbitals).
Use PS.lmax or PS.KBprojectors blocks to override.
For H, standard SIESTA heuristics set lmxkb to 1
 (one more than the basis l, including polarization orbitals).
Use PS.lmax or PS.KBprojectors blocks to override.

<basis_specs>
===============================================================================
Si                   Z=  14    Mass=  28.090        Charge= 0.17977+309
Lmxo=2 Lmxkb= 3    BasisType=split      Semic=F
L=0  Nsemic=0  Cnfigmx=3
          i=1  nzeta=2  polorb=0  (3s)
            splnorm:   0.15000    
               vcte:    0.0000    
               rinn:    0.0000    
               qcoe:    0.0000    
               qyuk:    0.0000    
               qwid:   0.10000E-01
                rcs:    0.0000      0.0000    
            lambdas:    1.0000      1.0000    
L=1  Nsemic=0  Cnfigmx=3
          i=1  nzeta=2  polorb=1  (3p)  (to be polarized perturbatively)
            splnorm:   0.15000    
               vcte:    0.0000    
               rinn:    0.0000    
               qcoe:    0.0000    
               qyuk:    0.0000    
               qwid:   0.10000E-01
                rcs:    0.0000      0.0000    
            lambdas:    1.0000      1.0000    
L=2  Nsemic=0  Cnfigmx=3
          i=1  nzeta=0  polorb=0  (3d)  (perturbative polarization orbital) (from 3p)
-------------------------------------------------------------------------------
L=0  Nkbl=1  erefs: 0.17977+309
L=1  Nkbl=1  erefs: 0.17977+309
L=2  Nkbl=1  erefs: 0.17977+309
L=3  Nkbl=1  erefs: 0.17977+309
===============================================================================
</basis_specs>

atom: Called for Si                    (Z =  14)

read_vps: Pseudopotential generation method:
read_vps: ATM3      Troullier-Martins                       
Valence charge in pseudo generation:    4.00000

xc_check: Exchange-correlation functional:
xc_check: Ceperley-Alder
V l=0 = -2*Zval/r beyond r=  2.5494
V l=1 = -2*Zval/r beyond r=  2.5494
V l=2 = -2*Zval/r beyond r=  2.5494
V l=3 = -2*Zval/r beyond r=  2.5494
All V_l potentials equal beyond r=  1.8652
This should be close to max(r_c) in ps generation
All pots = -2*Zval/r beyond r=  2.5494
Using large-core scheme (fit) for Vlocal

atom: Estimated core radius    2.54944

atom: Including non-local core corrections could be a good idea
Fit of Vlocal with continuous 2nd derivative
Fitting vlocal at       1.9364
Choosing vlocal chloc cutoff:776  2.853027
qtot up to nchloc:    3.99976076
atom: Maximum radius for chlocal:    2.85303
atom: Maximum radius for r*vlocal+2*Zval:    2.85303

KBgen: Kleinman-Bylander projectors: 
GHOST: No ghost state for L =  0
   l= 0   rc=  1.936440   el= -0.796617   Ekb=  4.661340   kbcos=  0.299756
GHOST: No ghost state for L =  1
   l= 1   rc=  1.936440   el= -0.307040   Ekb=  1.494238   kbcos=  0.301471
GHOST: No ghost state for L =  2
   l= 2   rc=  1.936440   el=  0.002313   Ekb= -2.808672   kbcos= -0.054903
GHOST: No ghost state for L =  3
   l= 3   rc=  1.936440   el=  0.003402   Ekb= -0.959059   kbcos= -0.005513

KBgen: Total number of Kleinman-Bylander projectors:  16
atom: -------------------------------------------------------------------------

atom: SANKEY-TYPE ORBITALS:
atom: Selected multiple-zeta basis: split     

SPLIT: Orbitals with angular momentum L= 0

SPLIT: Basis orbitals for state 3s

SPLIT: PAO cut-off radius determined from an
SPLIT: energy shift=  0.022050 Ry

   izeta = 1
                 lambda =    1.000000
                     rc =    4.883716
                 energy =   -0.773554
                kinetic =    0.585471
    potential(screened) =   -1.359025
       potential(ionic) =   -3.840954

   izeta = 2
                 rmatch =    4.418952
              splitnorm =    0.150000
                 energy =   -0.679782
                kinetic =    0.875998
    potential(screened) =   -1.555780
       potential(ionic) =   -4.137081

SPLIT: Orbitals with angular momentum L= 1

SPLIT: Basis orbitals for state 3p

SPLIT: PAO cut-off radius determined from an
SPLIT: energy shift=  0.022050 Ry

   izeta = 1
                 lambda =    1.000000
                     rc =    6.116033
                 energy =   -0.285742
                kinetic =    0.892202
    potential(screened) =   -1.177944
       potential(ionic) =   -3.446720

   izeta = 2
                 rmatch =    4.945148
              splitnorm =    0.150000
                 energy =   -0.200424
                kinetic =    1.256022
    potential(screened) =   -1.456447
       potential(ionic) =   -3.904246

POLgen: Perturbative polarization orbital with L=  2

POLgen: Polarization orbital for state 3p

   izeta = 1
                     rc =    6.116033
                 energy =    0.448490
                kinetic =    1.330466
    potential(screened) =   -0.881975
       potential(ionic) =   -2.962224
atom: Total number of Sankey-type orbitals: 13

atm_pop: Valence configuration (for local Pseudopot. screening):
 3s( 2.00)                                                            
 3p( 2.00)                                                            
 3d( 0.00)                                                            
Vna: chval, zval:    4.00000   4.00000

Vna:  Cut-off radius for the neutral-atom potential:   6.116033

atom: _________________________________________________________________________

<basis_specs>
===============================================================================
H                    Z=   1    Mass=  1.0080        Charge= 0.17977+309
Lmxo=0 Lmxkb= 1    BasisType=split      Semic=F
L=0  Nsemic=0  Cnfigmx=1
          i=1  nzeta=1  polorb=0  (1s)
            splnorm:   0.15000    
               vcte:    0.0000    
               rinn:    0.0000    
               qcoe:    0.0000    
               qyuk:    0.0000    
               qwid:   0.10000E-01
                rcs:    0.0000    
            lambdas:   0.80000    
-------------------------------------------------------------------------------
L=0  Nkbl=1  erefs: 0.17977+309
L=1  Nkbl=1  erefs: 0.17977+309
===============================================================================
</basis_specs>

atom: Called for H                     (Z =   1)

read_vps: Pseudopotential generation method:
read_vps: ATM3      Troullier-Martins                       
Valence charge in pseudo generation:    1.00000

xc_check: Exchange-correlation functional:
xc_check: Ceperley-Alder
V l=0 = -2*Zval/r beyond r=  1.2343
V l=1 = -2*Zval/r beyond r=  1.2189
All V_l potentials equal beyond r=  1.2343
This should be close to max(r_c) in ps generation
All pots = -2*Zval/r beyond r=  1.2343
Using small-core scheme (local charge) for Vlocal

VLOCAL_FROM_CHLOCAL: 99.0% of the norm of Vloc inside     28.493 Ry
VLOCAL_FROM_CHLOCAL: 99.9% of the norm of Vloc inside     64.935 Ry
atom: Maximum radius for chlocal:    1.45251
atom: Maximum radius for r*vlocal+2*Zval:    1.31405

KBgen: Kleinman-Bylander projectors: 
GHOST: No ghost state for L =  0
   l= 0   rc=  1.364359   el= -0.467325   Ekb= -2.005361   kbcos= -0.336422
GHOST: No ghost state for L =  1
   l= 1   rc=  1.434438   el=  0.001430   Ekb= -0.501708   kbcos= -0.021697

KBgen: Total number of Kleinman-Bylander projectors:   4
atom: -------------------------------------------------------------------------

atom: SANKEY-TYPE ORBITALS:

SPLIT: Orbitals with angular momentum L= 0

SPLIT: Basis orbitals for state 1s

SPLIT: PAO cut-off radius determined from an
SPLIT: energy shift=  0.022050 Ry

   izeta = 1
                 lambda =    0.800000
                     rc =    4.718242
                 energy =   -0.396561
                kinetic =    1.341628
    potential(screened) =   -1.738188
       potential(ionic) =   -2.295884
atom: Total number of Sankey-type orbitals:  1

atm_pop: Valence configuration (for local Pseudopot. screening):
 1s( 1.00)                                                            
Vna: chval, zval:    1.00000   1.00000

Vna:  Cut-off radius for the neutral-atom potential:   4.708991

atom: _________________________________________________________________________

prinput: Basis input 

PAO.BasisType split     

%block ChemicalSpeciesLabel
    1   14 Si                      # Species index, atomic number, species label
    2    1 H                       # Species index, atomic number, species label
%endblock ChemicalSpeciesLabel

%block PAO.Basis                 # Define Basis set
# WARNING: This information might be incomplete!
Si                    2                    # Species label, number of l-shells
 n=3   0   2                         # n, l, Nzeta 
   4.884      4.419   
   1.000      1.000   
 n=3   1   2 P   1                   # n, l, Nzeta, Polarization, NzetaPol
   6.116      4.945   
   1.000      1.000   
H                     1                    # Species label, number of l-shells
 n=1   0   1                         # n, l, Nzeta 
   4.718   
   0.800   
%endblock PAO.Basis

prinput: ----------------------------------------------------------------------

Dumping basis to NetCDF file Si.ion.nc
Dumping basis to NetCDF file H.ion.nc
coor:   Atomic-coordinates input format  =     Cartesian coordinates
coor:                                          (in units of alat)

siesta: Atomic coordinates (Bohr) and species
siesta:      0.00000   0.00000   0.00000  1        1
siesta:      2.56530   2.56530   2.56530  1        2
siesta:      0.00000   5.13061   5.13061  1        3
siesta:      2.56530   7.69591   7.69591  1        4
siesta:      5.13061   0.00000   5.13061  1        5
siesta:      7.69591   2.56530   7.69591  1        6
siesta:      5.13061   5.13061   0.00000  1        7
siesta:      7.69591   7.69591   2.56530  1        8
siesta:     10.26121   0.00000   0.00000  1        9
siesta:     12.82652   2.56530   2.56530  1       10
siesta:     10.26121   5.13061   5.13061  1       11
siesta:     12.82652   7.69591   7.69591  1       12
siesta:     15.39182   0.00000   5.13061  1       13
siesta:     17.95712   2.56530   7.69591  1       14
siesta:     15.39182   5.13061   0.00000  1       15
siesta:     17.95712   7.69591   2.56530  1       16
siesta:      0.00000  10.26121   0.00000  1       17
siesta:      2.56530  12.82652   2.56530  1       18
siesta:      0.00000  15.39182   5.13061  1       19
siesta:      2.56530  17.95712   7.69591  1       20
siesta:      5.13061  10.26121   5.13061  1       21
siesta:      7.69591  12.82652   7.69591  1       22
siesta:      5.13061  15.39182   0.00000  1       23
siesta:      7.69591  17.95712   2.56530  1       24
siesta:      0.00000   0.00000  10.26121  1       25
siesta:      2.56530   2.56530  12.82652  1       26
siesta:      0.00000   5.13061  15.39182  1       27
siesta:      2.56530   7.69591  17.95712  1       28
siesta:      5.13061   0.00000  15.39182  1       29
siesta:      7.69591   2.56530  17.95712  1       30
siesta:      5.13061   5.13061  10.26121  1       31
siesta:      7.69591   7.69591  12.82652  1       32
siesta:     10.26121  10.26121   0.00000  1       33
siesta:     12.82652  12.82652   2.56530  1       34
siesta:     10.26121  15.39182   5.13061  1       35
siesta:     12.82652  17.95712   7.69591  1       36
siesta:     15.39182  10.26121   5.13061  1       37
siesta:     17.95712  12.82652   7.69591  1       38
siesta:     15.39182  15.39182   0.00000  1       39
siesta:     17.95712  17.95712   2.56530  1       40
siesta:     10.26121   0.00000  10.26121  1       41
siesta:     12.82652   2.56530  12.82652  1       42
siesta:     10.26121   5.13061  15.39182  1       43
siesta:     12.82652   7.69591  17.95712  1       44
siesta:     15.39182   0.00000  15.39182  1       45
siesta:     17.95712   2.56530  17.95712  1       46
siesta:     15.39182   5.13061  10.26121  1       47
siesta:     17.95712   7.69591  12.82652  1       48
siesta:      0.00000  10.26121  10.26121  1       49
siesta:      2.56530  12.82652  12.82652  1       50
siesta:      0.00000  15.39182  15.39182  1       51
siesta:      2.56530  17.95712  17.95712  1       52
siesta:      5.13061  10.26121  15.39182  1       53
siesta:      7.69591  12.82652  17.95712  1       54
siesta:      5.13061  15.39182  10.26121  1       55
siesta:      7.69591  17.95712  12.82652  1       56
siesta:     10.26121  10.26121  10.26121  1       57
siesta:     12.82652  12.82652  12.82652  1       58
siesta:     10.26121  15.39182  15.39182  1       59
siesta:     12.82652  17.95712  17.95712  1       60
siesta:     15.39182  10.26121  15.39182  1       61
siesta:     17.95712  12.82652  17.95712  1       62
siesta:     15.39182  15.39182  10.26121  1       63
siesta:     17.95712  17.95712  12.82652  1       64
siesta:     11.54386  11.54386  11.54386  2       65

siesta: System type = bulk      

initatomlists: Number of atoms, orbitals, and projectors:     65   833  1028

siesta: ******************** Simulation parameters ****************************
siesta:
siesta: The following are some of the parameters of the simulation.
siesta: A complete list of the parameters used, including default values,
siesta: can be found in file out.fdf
siesta:
redata: Spin configuration                          = none
redata: Number of spin components                   = 1
redata: Time-Reversal Symmetry                      = T
redata: Spin spiral                                 = F
redata: Long output                                 =   F
redata: Number of Atomic Species                    =        2
redata: Charge density info will appear in .RHO file
redata: Write Mulliken Pop.                         = NO
redata: Matel table size (NRTAB)                    =     1024
redata: Mesh Cutoff                                 =   100.0000 Ry
redata: Net charge of the system                    =     0.0000 |e|
redata: Min. number of SCF Iter                     =        0
redata: Max. number of SCF Iter                     =       20
redata: SCF convergence failure will abort job
redata: SCF mix quantity                            = Hamiltonian
redata: Mix DM or H after convergence               =   F
redata: Recompute H after scf cycle                 =   F
redata: Mix DM in first SCF step                    =   T
redata: Write Pulay info on disk                    =   F
redata: New DM Occupancy tolerance                  = 0.000000000001
redata: No kicks to SCF
redata: DM Mixing Weight for Kicks                  =     0.5000
redata: Require Harris convergence for SCF          =   F
redata: Harris energy tolerance for SCF             =     0.000100 eV
redata: Require DM convergence for SCF              =   T
redata: DM tolerance for SCF                        =     0.001000
redata: Require EDM convergence for SCF             =   F
redata: EDM tolerance for SCF                       =     0.001000 eV
redata: Require H convergence for SCF               =   T
redata: Hamiltonian tolerance for SCF               =     0.001000 eV
redata: Require (free) Energy convergence for SCF   =   F
redata: (free) Energy tolerance for SCF             =     0.000100 eV
redata: Using DFT-D3 dispersion                     =   F
redata: Using Saved Data (generic)                  =   F
redata: Use continuation files for DM               =   T
redata: Neglect nonoverlap interactions             =   F
redata: Method of Calculation                       = ELSI solvers
redata: Fix the spin of the system                  =   F
redata: Max. number of TDED Iter                    =        1
redata: Number of TDED substeps                     =        3
redata: Dynamics option                             = Single-point calculation
mix.SCF: Pulay mixing                            = Pulay
mix.SCF:    Variant                              = stable
mix.SCF:    History steps                        = 4
mix.SCF:    Linear mixing weight                 =     0.300000
mix.SCF:    Mixing weight                        =     0.300000
mix.SCF:    SVD condition                        = 0.1000E-07
redata: Save all siesta data in one NC              =   F
redata: ***********************************************************************

%block SCF.Mixers
  Pulay
%endblock SCF.Mixers

%block SCF.Mixer.Pulay
  # Mixing method
  method pulay
  variant stable

  # Mixing options
  weight 0.3000
  weight.linear 0.3000
  history 4
%endblock SCF.Mixer.Pulay

DM_history_depth set to one: no extrapolation allowed by default for geometry relaxation
Size of DM history Fstack: 1
Total number of electrons:   257.000000
Total ionic charge:   257.000000

* ProcessorY, Blocksize:    2  64


* Orbital distribution balance (max,min):   256   192


siesta: k-grid: Number of k-points = 1
siesta: k-point is Gamma-only


ts: **************************************************************
ts: Save H and S matrices                           =    F
ts: Save DM and EDM matrices                        =    F
ts: Only save the overlap matrix S                  =    F
ts: **************************************************************

************************ Begin: TS CHECKS AND WARNINGS ************************
************************ End: TS CHECKS AND WARNINGS **************************


                     ====================================
                        Single-point calculation
                     ====================================

outcell: Unit cell vectors (Ang):
       10.860000    0.000000    0.000000
        0.000000   10.860000    0.000000
        0.000000    0.000000   10.860000

outcell: Cell vector modules (Ang)   :   10.860000   10.860000   10.860000
outcell: Cell angles (23,13,12) (deg):     90.0000     90.0000     90.0000
outcell: Cell volume (Ang**3)        :   1280.8241
Gamma-point calculation with multiply-connected orbital pairs
Folding of H and S implicitly performed
<dSpData1D:S at geom step 0
  <sparsity:sparsity for geom step 0
    nrows_g=833 nrows=256 sparsity=.2278 nnzs=158095, refcount: 7>
  <dData1D:(new from dSpData1D) n=158095, refcount: 1>
refcount: 1>
new_DM -- step:     1
Initializing Density Matrix...

Attempting to read DM from file... Failed...
DM filled with atomic data:
<dSpData2D:DM initialized from atoms
  <sparsity:sparsity for geom step 0
    nrows_g=833 nrows=256 sparsity=.2278 nnzs=158095, refcount: 8>
  <dData2D:DM n=158095 m=1, refcount: 1>
refcount: 1>
No. of atoms with KB's overlaping orbs in proc 0. Max # of overlaps:      65     162

InitMesh: MESH = 72 x 72 x 72 = 373248
InitMesh: Mesh cutoff (required, used) =   100.000   121.481 Ry
New grid distribution [1]: sub = 2
New grid distribution [2]: sub = 2
New grid distribution [3]: sub = 2
Setting up quadratic distribution...
      Allocating      0.632 MB for row_ind_sp2
      Allocating      0.002 MB for col_ptr_sp2
      Allocating      1.391 MB for ham_real_den
      Allocating      1.391 MB for ovlp_real_den
      Allocating      1.265 MB for s_val_send
      Allocating      1.265 MB for dest
      Allocating      1.265 MB for perm
      Allocating      1.265 MB for h_val_send
      Allocating      0.632 MB for row_send
      Allocating      0.632 MB for col_send
      Allocating      0.000 MB for send_count
      Deallocating dest
      Deallocating perm
      Allocating      0.000 MB for recv_count
      Allocating      0.000 MB for send_displ
      Allocating      0.000 MB for recv_displ
      Allocating      0.514 MB for row_recv
      Deallocating row_send
      Allocating      0.514 MB for col_recv
      Deallocating col_send
      Allocating      1.028 MB for h_val_recv
      Deallocating h_val_send
      Allocating      1.028 MB for s_val_recv
      Deallocating s_val_send
      Deallocating send_count
      Deallocating recv_count
      Deallocating send_displ
      Deallocating recv_displ
      Deallocating s_val_recv
      Deallocating h_val_recv
      Deallocating row_recv
      Deallocating col_recv
  Finished matrix redistribution
  | Time :     0.009 s
      Allocating      0.007 MB for eval
      Allocating      1.391 MB for evec_real
      Allocating      1.391 MB for dm_real_den
      Allocating      0.007 MB for occ
  Starting ELPA eigensolver
  Finished Cholesky decomposition
  | Time :     0.007 s
      Allocating      1.605 MB for tmp
      Deallocating tmp
  Finished transformation to standard eigenproblem
  | Time :     0.009 s
  Finished solving standard eigenproblem
  | Time :     0.123 s
      Allocating      1.391 MB for tmp
      Deallocating tmp
  Finished back-transformation of eigenvectors
  | Time :     0.007 s
      Allocating      0.007 MB for eval_all
      Allocating      0.000 MB for k_wt
      Deallocating eval_all
      Deallocating k_wt
      Allocating      1.391 MB for tmp
      Allocating      1.605 MB for tmp
      Deallocating tmp
      Deallocating tmp
  Finished density matrix calculation
  | Time :     0.004 s
      Allocating      1.391 MB for dest
      Allocating      1.391 MB for perm
      Allocating      1.391 MB for val_send
      Allocating      0.696 MB for row_send
      Allocating      0.696 MB for col_send
      Allocating      0.000 MB for send_count
      Deallocating dest
      Deallocating perm
      Allocating      0.000 MB for recv_count
      Allocating      0.000 MB for send_displ
      Allocating      0.000 MB for recv_displ
      Allocating      0.853 MB for row_recv
      Deallocating row_send
      Allocating      0.853 MB for col_recv
      Deallocating col_send
      Allocating      1.706 MB for val_recv
      Deallocating val_send
      Deallocating send_count
      Deallocating recv_count
      Deallocating send_displ
      Deallocating recv_displ
      Deallocating row_recv
      Deallocating col_recv
      Deallocating val_recv
  Finished matrix redistribution
  | Time :     0.107 s

siesta: Program's energy decomposition (eV):
siesta: Ebs     =     -2362.698688
siesta: Eions   =     12205.279401
siesta: Ena     =      3677.530116
siesta: Ekin    =      2670.286670
siesta: Enl     =       929.055322
siesta: Eso     =         0.000000
siesta: Edftu   =         0.000000
siesta: DEna    =       124.739113
siesta: DUscf   =        10.800472
siesta: DUext   =         0.000000
siesta: Ex      =     -1774.890088
siesta: Ec      =      -327.539628
siesta: Exc     =     -2102.429715
siesta: EbV     =         0.000000
siesta: eta*DQ  =         0.000000
siesta: Emadel  =         0.000000
siesta: Emeta   =         0.000000
siesta: Emolmec =         0.000000
siesta: Ekinion =         0.000000
siesta: Eharris =     -6918.462169
siesta: Etot    =     -6895.297423
siesta: FreeEng =     -6895.380733

        iscf     Eharris(eV)        E_KS(eV)     FreeEng(eV)     dDmax    Ef(eV) dHmax(eV)
   scf:    1    -6918.462169    -6895.297423    -6895.380733  1.813733 -3.550301  3.781869
timer: Routine,Calls,Time,% = IterSCF        1       0.783  36.81
      Deallocating row_ind_sp2
      Deallocating col_ptr_sp2
      Allocating      0.632 MB for row_ind_sp2
      Allocating      0.002 MB for col_ptr_sp2
      Allocating      1.265 MB for dest
      Allocating      1.265 MB for perm
      Allocating      1.265 MB for h_val_send
      Allocating      0.632 MB for row_send
      Allocating      0.632 MB for col_send
      Allocating      0.000 MB for send_count
      Deallocating dest
      Deallocating perm
      Allocating      0.000 MB for recv_count
      Allocating      0.000 MB for send_displ
      Allocating      0.000 MB for recv_displ
      Allocating      0.514 MB for row_recv
      Deallocating row_send
      Allocating      0.514 MB for col_recv
      Deallocating col_send
      Allocating      1.028 MB for h_val_recv
      Deallocating h_val_send
      Deallocating send_count
      Deallocating recv_count
      Deallocating send_displ
      Deallocating recv_displ
      Deallocating h_val_recv
      Deallocating row_recv
      Deallocating col_recv
  Finished matrix redistribution
  | Time :     0.008 s
  Starting ELPA eigensolver
      Allocating      1.605 MB for tmp
      Deallocating tmp
  Finished transformation to standard eigenproblem
  | Time :     0.010 s
  Finished solving standard eigenproblem
  | Time :     0.120 s
      Allocating      1.391 MB for tmp
      Deallocating tmp
  Finished back-transformation of eigenvectors
  | Time :     0.007 s
      Allocating      0.007 MB for eval_all
      Allocating      0.000 MB for k_wt
      Deallocating eval_all
      Deallocating k_wt
      Allocating      1.391 MB for tmp
      Allocating      1.605 MB for tmp
      Deallocating tmp
      Deallocating tmp
  Finished density matrix calculation
  | Time :     0.003 s
      Allocating      1.391 MB for dest
      Allocating      1.391 MB for perm
      Allocating      1.391 MB for val_send
      Allocating      0.696 MB for row_send
      Allocating      0.696 MB for col_send
      Allocating      0.000 MB for send_count
      Deallocating dest
      Deallocating perm
      Allocating      0.000 MB for recv_count
      Allocating      0.000 MB for send_displ
      Allocating      0.000 MB for recv_displ
      Allocating      0.853 MB for row_recv
      Deallocating row_send
      Allocating      0.853 MB for col_recv
      Deallocating col_send
      Allocating      1.706 MB for val_recv
      Deallocating val_send
      Deallocating send_count
      Deallocating recv_count
      Deallocating send_displ
      Deallocating recv_displ
      Deallocating row_recv
      Deallocating col_recv
      Deallocating val_recv
  Finished matrix redistribution
  | Time :     0.107 s
   scf:    2    -6894.312472    -6895.696239    -6895.771007  0.036249 -3.589942  2.066816
      Deallocating row_ind_sp2
      Deallocating col_ptr_sp2
      Allocating      0.632 MB for row_ind_sp2
      Allocating      0.002 MB for col_ptr_sp2
      Allocating      1.265 MB for dest
      Allocating      1.265 MB for perm
      Allocating      1.265 MB for h_val_send
      Allocating      0.632 MB for row_send
      Allocating      0.632 MB for col_send
      Allocating      0.000 MB for send_count
      Deallocating dest
      Deallocating perm
      Allocating      0.000 MB for recv_count
      Allocating      0.000 MB for send_displ
      Allocating      0.000 MB for recv_displ
      Allocating      0.514 MB for row_recv
      Deallocating row_send
      Allocating      0.514 MB for col_recv
      Deallocating col_send
      Allocating      1.028 MB for h_val_recv
      Deallocating h_val_send
      Deallocating send_count
      Deallocating recv_count
      Deallocating send_displ
      Deallocating recv_displ
      Deallocating h_val_recv
      Deallocating row_recv
      Deallocating col_recv
  Finished matrix redistribution
  | Time :     0.007 s
  Starting ELPA eigensolver
      Allocating      1.605 MB for tmp
      Deallocating tmp
  Finished transformation to standard eigenproblem
  | Time :     0.011 s
  Finished solving standard eigenproblem
  | Time :     0.126 s
      Allocating      1.391 MB for tmp
      Deallocating tmp
  Finished back-transformation of eigenvectors
  | Time :     0.008 s
      Allocating      0.007 MB for eval_all
      Allocating      0.000 MB for k_wt
      Deallocating eval_all
      Deallocating k_wt
      Allocating      1.391 MB for tmp
      Allocating      1.605 MB for tmp
      Deallocating tmp
      Deallocating tmp
  Finished density matrix calculation
  | Time :     0.004 s
      Allocating      1.391 MB for dest
      Allocating      1.391 MB for perm
      Allocating      1.391 MB for val_send
      Allocating      0.696 MB for row_send
      Allocating      0.696 MB for col_send
      Allocating      0.000 MB for send_count
      Deallocating dest
      Deallocating perm
      Allocating      0.000 MB for recv_count
      Allocating      0.000 MB for send_displ
      Allocating      0.000 MB for recv_displ
      Allocating      0.853 MB for row_recv
      Deallocating row_send
      Allocating      0.853 MB for col_recv
      Deallocating col_send
      Allocating      1.706 MB for val_recv
      Deallocating val_send
      Deallocating send_count
      Deallocating recv_count
      Deallocating send_displ
      Deallocating recv_displ
      Deallocating row_recv
      Deallocating col_recv
      Deallocating val_recv
  Finished matrix redistribution
  | Time :     0.110 s
   scf:    3    -6896.157427    -6896.146052    -6896.223811  0.013970 -3.553939  0.287224
      Deallocating row_ind_sp2
      Deallocating col_ptr_sp2
      Allocating      0.632 MB for row_ind_sp2
      Allocating      0.002 MB for col_ptr_sp2
      Allocating      1.265 MB for dest
      Allocating      1.265 MB for perm
      Allocating      1.265 MB for h_val_send
      Allocating      0.632 MB for row_send
      Allocating      0.632 MB for col_send
      Allocating      0.000 MB for send_count
      Deallocating dest
      Deallocating perm
      Allocating      0.000 MB for recv_count
      Allocating      0.000 MB for send_displ
      Allocating      0.000 MB for recv_displ
      Allocating      0.514 MB for row_recv
      Deallocating row_send
      Allocating      0.514 MB for col_recv
      Deallocating col_send
      Allocating      1.028 MB for h_val_recv
      Deallocating h_val_send
      Deallocating send_count
      Deallocating recv_count
      Deallocating send_displ
      Deallocating recv_displ
      Deallocating h_val_recv
      Deallocating row_recv
      Deallocating col_recv
  Finished matrix redistribution
  | Time :     0.006 s
  Starting ELPA eigensolver
      Allocating      1.605 MB for tmp
      Deallocating tmp
  Finished transformation to standard eigenproblem
  | Time :     0.010 s
  Finished solving standard eigenproblem
  | Time :     0.114 s
      Allocating      1.391 MB for tmp
      Deallocating tmp
  Finished back-transformation of eigenvectors
  | Time :     0.006 s
      Allocating      0.007 MB for eval_all
      Allocating      0.000 MB for k_wt
      Deallocating eval_all
      Deallocating k_wt
      Allocating      1.391 MB for tmp
      Allocating      1.605 MB for tmp
      Deallocating tmp
      Deallocating tmp
  Finished density matrix calculation
  | Time :     0.003 s
      Allocating      1.391 MB for dest
      Allocating      1.391 MB for perm
      Allocating      1.391 MB for val_send
      Allocating      0.696 MB for row_send
      Allocating      0.696 MB for col_send
      Allocating      0.000 MB for send_count
      Deallocating dest
      Deallocating perm
      Allocating      0.000 MB for recv_count
      Allocating      0.000 MB for send_displ
      Allocating      0.000 MB for recv_displ
      Allocating      0.853 MB for row_recv
      Deallocating row_send
      Allocating      0.853 MB for col_recv
      Deallocating col_send
      Allocating      1.706 MB for val_recv
      Deallocating val_send
      Deallocating send_count
      Deallocating recv_count
      Deallocating send_displ
      Deallocating recv_displ
      Deallocating row_recv
      Deallocating col_recv
      Deallocating val_recv
  Finished matrix redistribution
  | Time :     0.107 s
   scf:    4    -6896.187330    -6896.170559    -6896.247500  0.011052 -3.548803  0.068422
      Deallocating row_ind_sp2
      Deallocating col_ptr_sp2
      Allocating      0.632 MB for row_ind_sp2
      Allocating      0.002 MB for col_ptr_sp2
      Allocating      1.265 MB for dest
      Allocating      1.265 MB for perm
      Allocating      1.265 MB for h_val_send
      Allocating      0.632 MB for row_send
      Allocating      0.632 MB for col_send
      Allocating      0.000 MB for send_count
      Deallocating dest
      Deallocating perm
      Allocating      0.000 MB for recv_count
      Allocating      0.000 MB for send_displ
      Allocating      0.000 MB for recv_displ
      Allocating      0.514 MB for row_recv
      Deallocating row_send
      Allocating      0.514 MB for col_recv
      Deallocating col_send
      Allocating      1.028 MB for h_val_recv
      Deallocating h_val_send
      Deallocating send_count
      Deallocating recv_count
      Deallocating send_displ
      Deallocating recv_displ
      Deallocating h_val_recv
      Deallocating row_recv
      Deallocating col_recv
  Finished matrix redistribution
  | Time :     0.006 s
  Starting ELPA eigensolver
      Allocating      1.605 MB for tmp
      Deallocating tmp
  Finished transformation to standard eigenproblem
  | Time :     0.008 s
  Finished solving standard eigenproblem
  | Time :     0.111 s
      Allocating      1.391 MB for tmp
      Deallocating tmp
  Finished back-transformation of eigenvectors
  | Time :     0.007 s
      Allocating      0.007 MB for eval_all
      Allocating      0.000 MB for k_wt
      Deallocating eval_all
      Deallocating k_wt
      Allocating      1.391 MB for tmp
      Allocating      1.605 MB for tmp
      Deallocating tmp
      Deallocating tmp
  Finished density matrix calculation
  | Time :     0.004 s
      Allocating      1.391 MB for dest
      Allocating      1.391 MB for perm
      Allocating      1.391 MB for val_send
      Allocating      0.696 MB for row_send
      Allocating      0.696 MB for col_send
      Allocating      0.000 MB for send_count
      Deallocating dest
      Deallocating perm
      Allocating      0.000 MB for recv_count
      Allocating      0.000 MB for send_displ
      Allocating      0.000 MB for recv_displ
      Allocating      0.853 MB for row_recv
      Deallocating row_send
      Allocating      0.853 MB for col_recv
      Deallocating col_send
      Allocating      1.706 MB for val_recv
      Deallocating val_send
      Deallocating send_count
      Deallocating recv_count
      Deallocating send_displ
      Deallocating recv_displ
      Deallocating row_recv
      Deallocating col_recv
      Deallocating val_recv
  Finished matrix redistribution
  | Time :     0.106 s
   scf:    5    -6896.188441    -6896.180271    -6896.256662  0.012039 -3.541367  0.095274
      Deallocating row_ind_sp2
      Deallocating col_ptr_sp2
      Allocating      0.632 MB for row_ind_sp2
      Allocating      0.002 MB for col_ptr_sp2
      Allocating      1.265 MB for dest
      Allocating      1.265 MB for perm
      Allocating      1.265 MB for h_val_send
      Allocating      0.632 MB for row_send
      Allocating      0.632 MB for col_send
      Allocating      0.000 MB for send_count
      Deallocating dest
      Deallocating perm
      Allocating      0.000 MB for recv_count
      Allocating      0.000 MB for send_displ
      Allocating      0.000 MB for recv_displ
      Allocating      0.514 MB for row_recv
      Deallocating row_send
      Allocating      0.514 MB for col_recv
      Deallocating col_send
      Allocating      1.028 MB for h_val_recv
      Deallocating h_val_send
      Deallocating send_count
      Deallocating recv_count
      Deallocating send_displ
      Deallocating recv_displ
      Deallocating h_val_recv
      Deallocating row_recv
      Deallocating col_recv
  Finished matrix redistribution
  | Time :     0.007 s
  Starting ELPA eigensolver
      Allocating      1.605 MB for tmp
      Deallocating tmp
  Finished transformation to standard eigenproblem
  | Time :     0.008 s
  Finished solving standard eigenproblem
  | Time :     0.116 s
      Allocating      1.391 MB for tmp
      Deallocating tmp
  Finished back-transformation of eigenvectors
  | Time :     0.007 s
      Allocating      0.007 MB for eval_all
      Allocating      0.000 MB for k_wt
      Deallocating eval_all
      Deallocating k_wt
      Allocating      1.391 MB for tmp
      Allocating      1.605 MB for tmp
      Deallocating tmp
      Deallocating tmp
  Finished density matrix calculation
  | Time :     0.004 s
      Allocating      1.391 MB for dest
      Allocating      1.391 MB for perm
      Allocating      1.391 MB for val_send
      Allocating      0.696 MB for row_send
      Allocating      0.696 MB for col_send
      Allocating      0.000 MB for send_count
      Deallocating dest
      Deallocating perm
      Allocating      0.000 MB for recv_count
      Allocating      0.000 MB for send_displ
      Allocating      0.000 MB for recv_displ
      Allocating      0.853 MB for row_recv
      Deallocating row_send
      Allocating      0.853 MB for col_recv
      Deallocating col_send
      Allocating      1.706 MB for val_recv
      Deallocating val_send
      Deallocating send_count
      Deallocating recv_count
      Deallocating send_displ
      Deallocating recv_displ
      Deallocating row_recv
      Deallocating col_recv
      Deallocating val_recv
  Finished matrix redistribution
  | Time :     0.106 s
   scf:    6    -6896.183364    -6896.181938    -6896.258240  0.007370 -3.536454  0.023961
      Deallocating row_ind_sp2
      Deallocating col_ptr_sp2
      Allocating      0.632 MB for row_ind_sp2
      Allocating      0.002 MB for col_ptr_sp2
      Allocating      1.265 MB for dest
      Allocating      1.265 MB for perm
      Allocating      1.265 MB for h_val_send
      Allocating      0.632 MB for row_send
      Allocating      0.632 MB for col_send
      Allocating      0.000 MB for send_count
      Deallocating dest
      Deallocating perm
      Allocating      0.000 MB for recv_count
      Allocating      0.000 MB for send_displ
      Allocating      0.000 MB for recv_displ
      Allocating      0.514 MB for row_recv
      Deallocating row_send
      Allocating      0.514 MB for col_recv
      Deallocating col_send
      Allocating      1.028 MB for h_val_recv
      Deallocating h_val_send
      Deallocating send_count
      Deallocating recv_count
      Deallocating send_displ
      Deallocating recv_displ
      Deallocating h_val_recv
      Deallocating row_recv
      Deallocating col_recv
  Finished matrix redistribution
  | Time :     0.007 s
  Starting ELPA eigensolver
      Allocating      1.605 MB for tmp
      Deallocating tmp
  Finished transformation to standard eigenproblem
  | Time :     0.009 s
  Finished solving standard eigenproblem
  | Time :     0.115 s
      Allocating      1.391 MB for tmp
      Deallocating tmp
  Finished back-transformation of eigenvectors
  | Time :     0.007 s
      Allocating      0.007 MB for eval_all
      Allocating      0.000 MB for k_wt
      Deallocating eval_all
      Deallocating k_wt
      Allocating      1.391 MB for tmp
      Allocating      1.605 MB for tmp
      Deallocating tmp
      Deallocating tmp
  Finished density matrix calculation
  | Time :     0.004 s
      Allocating      1.391 MB for dest
      Allocating      1.391 MB for perm
      Allocating      1.391 MB for val_send
      Allocating      0.696 MB for row_send
      Allocating      0.696 MB for col_send
      Allocating      0.000 MB for send_count
      Deallocating dest
      Deallocating perm
      Allocating      0.000 MB for recv_count
      Allocating      0.000 MB for send_displ
      Allocating      0.000 MB for recv_displ
      Allocating      0.853 MB for row_recv
      Deallocating row_send
      Allocating      0.853 MB for col_recv
      Deallocating col_send
      Allocating      1.706 MB for val_recv
      Deallocating val_send
      Deallocating send_count
      Deallocating recv_count
      Deallocating send_displ
      Deallocating recv_displ
      Deallocating row_recv
      Deallocating col_recv
      Deallocating val_recv
  Finished matrix redistribution
  | Time :     0.105 s
   scf:    7    -6896.182136    -6896.182046    -6896.258343  0.002032 -3.535157  0.005176
      Deallocating row_ind_sp2
      Deallocating col_ptr_sp2
      Allocating      0.632 MB for row_ind_sp2
      Allocating      0.002 MB for col_ptr_sp2
      Allocating      1.265 MB for dest
      Allocating      1.265 MB for perm
      Allocating      1.265 MB for h_val_send
      Allocating      0.632 MB for row_send
      Allocating      0.632 MB for col_send
      Allocating      0.000 MB for send_count
      Deallocating dest
      Deallocating perm
      Allocating      0.000 MB for recv_count
      Allocating      0.000 MB for send_displ
      Allocating      0.000 MB for recv_displ
      Allocating      0.514 MB for row_recv
      Deallocating row_send
      Allocating      0.514 MB for col_recv
      Deallocating col_send
      Allocating      1.028 MB for h_val_recv
      Deallocating h_val_send
      Deallocating send_count
      Deallocating recv_count
      Deallocating send_displ
      Deallocating recv_displ
      Deallocating h_val_recv
      Deallocating row_recv
      Deallocating col_recv
  Finished matrix redistribution
  | Time :     0.006 s
  Starting ELPA eigensolver
      Allocating      1.605 MB for tmp
      Deallocating tmp
  Finished transformation to standard eigenproblem
  | Time :     0.010 s
  Finished solving standard eigenproblem
  | Time :     0.116 s
      Allocating      1.391 MB for tmp
      Deallocating tmp
  Finished back-transformation of eigenvectors
  | Time :     0.007 s
      Allocating      0.007 MB for eval_all
      Allocating      0.000 MB for k_wt
      Deallocating eval_all
      Deallocating k_wt
      Allocating      1.391 MB for tmp
      Allocating      1.605 MB for tmp
      Deallocating tmp
      Deallocating tmp
  Finished density matrix calculation
  | Time :     0.004 s
      Allocating      1.391 MB for dest
      Allocating      1.391 MB for perm
      Allocating      1.391 MB for val_send
      Allocating      0.696 MB for row_send
      Allocating      0.696 MB for col_send
      Allocating      0.000 MB for send_count
      Deallocating dest
      Deallocating perm
      Allocating      0.000 MB for recv_count
      Allocating      0.000 MB for send_displ
      Allocating      0.000 MB for recv_displ
      Allocating      0.853 MB for row_recv
      Deallocating row_send
      Allocating      0.853 MB for col_recv
      Deallocating col_send
      Allocating      1.706 MB for val_recv
      Deallocating val_send
      Deallocating send_count
      Deallocating recv_count
      Deallocating send_displ
      Deallocating recv_displ
      Deallocating row_recv
      Deallocating col_recv
      Deallocating val_recv
  Finished matrix redistribution
  | Time :     0.106 s
   scf:    8    -6896.182045    -6896.182047    -6896.258356  0.000335 -3.534893  0.003264
      Deallocating row_ind_sp2
      Deallocating col_ptr_sp2
      Allocating      0.632 MB for row_ind_sp2
      Allocating      0.002 MB for col_ptr_sp2
      Allocating      1.265 MB for dest
      Allocating      1.265 MB for perm
      Allocating      1.265 MB for h_val_send
      Allocating      0.632 MB for row_send
      Allocating      0.632 MB for col_send
      Allocating      0.000 MB for send_count
      Deallocating dest
      Deallocating perm
      Allocating      0.000 MB for recv_count
      Allocating      0.000 MB for send_displ
      Allocating      0.000 MB for recv_displ
      Allocating      0.514 MB for row_recv
      Deallocating row_send
      Allocating      0.514 MB for col_recv
      Deallocating col_send
      Allocating      1.028 MB for h_val_recv
      Deallocating h_val_send
      Deallocating send_count
      Deallocating recv_count
      Deallocating send_displ
      Deallocating recv_displ
      Deallocating h_val_recv
      Deallocating row_recv
      Deallocating col_recv
  Finished matrix redistribution
  | Time :     0.007 s
  Starting ELPA eigensolver
      Allocating      1.605 MB for tmp
      Deallocating tmp
  Finished transformation to standard eigenproblem
  | Time :     0.008 s
  Finished solving standard eigenproblem
  | Time :     0.104 s
      Allocating      1.391 MB for tmp
      Deallocating tmp
  Finished back-transformation of eigenvectors
  | Time :     0.007 s
      Allocating      0.007 MB for eval_all
      Allocating      0.000 MB for k_wt
      Deallocating eval_all
      Deallocating k_wt
      Allocating      1.391 MB for tmp
      Allocating      1.605 MB for tmp
      Deallocating tmp
      Deallocating tmp
  Finished density matrix calculation
  | Time :     0.003 s
      Allocating      1.391 MB for dest
      Allocating      1.391 MB for perm
      Allocating      1.391 MB for val_send
      Allocating      0.696 MB for row_send
      Allocating      0.696 MB for col_send
      Allocating      0.000 MB for send_count
      Deallocating dest
      Deallocating perm
      Allocating      0.000 MB for recv_count
      Allocating      0.000 MB for send_displ
      Allocating      0.000 MB for recv_displ
      Allocating      0.853 MB for row_recv
      Deallocating row_send
      Allocating      0.853 MB for col_recv
      Deallocating col_send
      Allocating      1.706 MB for val_recv
      Deallocating val_send
      Deallocating send_count
      Deallocating recv_count
      Deallocating send_displ
      Deallocating recv_displ
      Deallocating row_recv
      Deallocating col_recv
      Deallocating val_recv
  Finished matrix redistribution
  | Time :     0.104 s
   scf:    9    -6896.182066    -6896.182057    -6896.258359  0.000075 -3.534877  0.001164
      Deallocating row_ind_sp2
      Deallocating col_ptr_sp2
      Allocating      0.632 MB for row_ind_sp2
      Allocating      0.002 MB for col_ptr_sp2
      Allocating      1.265 MB for dest
      Allocating      1.265 MB for perm
      Allocating      1.265 MB for h_val_send
      Allocating      0.632 MB for row_send
      Allocating      0.632 MB for col_send
      Allocating      0.000 MB for send_count
      Deallocating dest
      Deallocating perm
      Allocating      0.000 MB for recv_count
      Allocating      0.000 MB for send_displ
      Allocating      0.000 MB for recv_displ
      Allocating      0.514 MB for row_recv
      Deallocating row_send
      Allocating      0.514 MB for col_recv
      Deallocating col_send
      Allocating      1.028 MB for h_val_recv
      Deallocating h_val_send
      Deallocating send_count
      Deallocating recv_count
      Deallocating send_displ
      Deallocating recv_displ
      Deallocating h_val_recv
      Deallocating row_recv
      Deallocating col_recv
  Finished matrix redistribution
  | Time :     0.007 s
  Starting ELPA eigensolver
      Allocating      1.605 MB for tmp
      Deallocating tmp
  Finished transformation to standard eigenproblem
  | Time :     0.008 s
  Finished solving standard eigenproblem
  | Time :     0.111 s
      Allocating      1.391 MB for tmp
      Deallocating tmp
  Finished back-transformation of eigenvectors
  | Time :     0.006 s
      Allocating      0.007 MB for eval_all
      Allocating      0.000 MB for k_wt
      Deallocating eval_all
      Deallocating k_wt
      Allocating      1.391 MB for tmp
      Allocating      1.605 MB for tmp
      Deallocating tmp
      Deallocating tmp
  Finished density matrix calculation
  | Time :     0.005 s
      Allocating      1.391 MB for dest
      Allocating      1.391 MB for perm
      Allocating      1.391 MB for val_send
      Allocating      0.696 MB for row_send
      Allocating      0.696 MB for col_send
      Allocating      0.000 MB for send_count
      Deallocating dest
      Deallocating perm
      Allocating      0.000 MB for recv_count
      Allocating      0.000 MB for send_displ
      Allocating      0.000 MB for recv_displ
      Allocating      0.853 MB for row_recv
      Deallocating row_send
      Allocating      0.853 MB for col_recv
      Deallocating col_send
      Allocating      1.706 MB for val_recv
      Deallocating val_send
      Deallocating send_count
      Deallocating recv_count
      Deallocating send_displ
      Deallocating recv_displ
      Deallocating row_recv
      Deallocating col_recv
      Deallocating val_recv
  Finished matrix redistribution
  | Time :     0.106 s
   scf:   10    -6896.182066    -6896.182062    -6896.258361  0.000071 -3.534825  0.000722

SCF Convergence by DM+H criterion
max |DM_out - DM_in|         :     0.0000714153
max |H_out - H_in|      (eV) :     0.0007215572
SCF cycle converged after 10 iterations
      Deallocating row_ind_sp2
      Deallocating col_ptr_sp2
      Allocating      0.632 MB for row_ind_sp2
      Allocating      0.002 MB for col_ptr_sp2
      Allocating      0.007 MB for factor
      Allocating      1.391 MB for tmp
      Deallocating tmp
  Finished energy density matrix calculation
  | Time :     0.011 s
      Deallocating factor
      Allocating      1.391 MB for dest
      Allocating      1.391 MB for perm
      Allocating      1.391 MB for val_send
      Allocating      0.696 MB for row_send
      Allocating      0.696 MB for col_send
      Allocating      0.000 MB for send_count
      Deallocating dest
      Deallocating perm
      Allocating      0.000 MB for recv_count
      Allocating      0.000 MB for send_displ
      Allocating      0.000 MB for recv_displ
      Allocating      0.853 MB for row_recv
      Deallocating row_send
      Allocating      0.853 MB for col_recv
      Deallocating col_send
      Allocating      1.706 MB for val_recv
      Deallocating val_send
      Deallocating send_count
      Deallocating recv_count
      Deallocating send_displ
      Deallocating recv_displ
      Deallocating row_recv
      Deallocating col_recv
      Deallocating val_recv
  Finished matrix redistribution
  | Time :     0.099 s

Using DM_out to compute the final energy and forces
 E_bs from EDM:  -2368.3874568002520     
No. of atoms with KB's overlaping orbs in proc 0. Max # of overlaps:      65     162
      Deallocating ham_real_den
      Deallocating ovlp_real_den
      Deallocating eval
      Deallocating evec_real
      Deallocating dm_real_den
      Deallocating row_ind_sp2
      Deallocating col_ptr_sp2
      Deallocating occ

siesta: E_KS(eV) =            -6896.1821

siesta: E_KS - E_eggbox =     -6896.1821

siesta: Atomic forces (eV/Ang):
----------------------------------------
   Tot    0.000000    0.000000   -0.000000
----------------------------------------
   Max    8.125465
   Res    1.427635    sqrt( Sum f_i^2 / 3N )
----------------------------------------
   Max    8.125465    constrained

Stress tensor Voigt[x,y,z,yz,xz,xy] (kbar):       -6.41       -6.41       -6.41      -13.74      -13.74      -13.74
(Free)E + p*V (eV/cell)    -6891.1311
Target enthalpy (eV/cell)    -6896.2584

siesta: Program's energy decomposition (eV):
siesta: Ebs     =     -2368.381657
siesta: Eions   =     12205.279401
siesta: Ena     =      3677.530116
siesta: Ekin    =      2659.985813
siesta: Enl     =       927.978934
siesta: Eso     =         0.000000
siesta: Edftu   =         0.000000
siesta: DEna    =       133.791026
siesta: DUscf   =         9.194401
siesta: DUext   =         0.000000
siesta: Ex      =     -1772.047347
siesta: Ec      =      -327.335604
siesta: Exc     =     -2099.382951
siesta: EbV     =         0.000000
siesta: eta*DQ  =         0.000000
siesta: Emadel  =         0.000000
siesta: Emeta   =         0.000000
siesta: Emolmec =         0.000000
siesta: Ekinion =         0.000000
siesta: Eharris =     -6896.182066
siesta: Etot    =     -6896.182062
siesta: FreeEng =     -6896.258361

siesta: Final energy (eV):
siesta:  Band Struct. =   -2368.381657
siesta:       Kinetic =    2659.985813
siesta:       Hartree =     493.653348
siesta:         Edftu =       0.000000
siesta:       Eso     =       0.000000
siesta:    Ext. field =       0.000000
siesta:         Exch. =   -1772.047347
siesta:         Corr. =    -327.335604
siesta:     Bulk bias =       0.000000
siesta:   Exch.-corr. =   -2099.382951
siesta:  Ion-electron =   -3278.193463
siesta:       Ion-ion =   -4672.244808
siesta:       Ekinion =       0.000000
siesta: D3 dispersion =       0.000000
siesta:         Total =   -6896.182062
siesta:         Fermi =      -3.534825

siesta: Atomic forces (eV/Ang):
siesta:      1    0.007904    0.007904    0.007904
siesta:      2   -0.007904   -0.007904   -0.007904
siesta:      3    0.039179    0.008329    0.008329
siesta:      4   -0.026915   -0.000925   -0.000925
siesta:      5    0.008329    0.039179    0.008329
siesta:      6   -0.000925   -0.026915   -0.000925
siesta:      7    0.008329    0.008329    0.039179
siesta:      8   -0.000925   -0.000925   -0.026915
siesta:      9   -0.069598   -0.003381   -0.003381
siesta:     10    0.069598    0.003381    0.003381
siesta:     11   -0.204910    0.038787    0.038787
siesta:     12    0.354629    0.043488    0.043488
siesta:     13    0.055032   -0.016690    0.021044
siesta:     14   -0.021044    0.016690   -0.055032
siesta:     15    0.055032    0.021044   -0.016690
siesta:     16   -0.021044   -0.055032    0.016690
siesta:     17   -0.003381   -0.069598   -0.003381
siesta:     18    0.003381    0.069598    0.003381
siesta:     19   -0.016690    0.055032    0.021044
siesta:     20    0.016690   -0.021044   -0.055032
siesta:     21    0.038787   -0.204910    0.038787
siesta:     22    0.043488    0.354629    0.043488
siesta:     23    0.021044    0.055032   -0.016690
siesta:     24   -0.055032   -0.021044    0.016690
siesta:     25   -0.003381   -0.003381   -0.069598
siesta:     26    0.003381    0.003381    0.069598
siesta:     27   -0.016690    0.021044    0.055032
siesta:     28    0.016690   -0.055032   -0.021044
siesta:     29    0.021044   -0.016690    0.055032
siesta:     30   -0.055032    0.016690   -0.021044
siesta:     31    0.038787    0.038787   -0.204910
siesta:     32    0.043488    0.043488    0.354629
siesta:     33    0.033913    0.033913    0.015436
siesta:     34   -0.033913   -0.033913   -0.015436
siesta:     35    0.110000    0.009975   -0.006668
siesta:     36   -0.110000    0.006668   -0.009975
siesta:     37    0.009975    0.110000   -0.006668
siesta:     38    0.006668   -0.110000   -0.009975
siesta:     39    0.000925    0.000925    0.026915
siesta:     40   -0.008329   -0.008329   -0.039179
siesta:     41    0.033913    0.015436    0.033913
siesta:     42   -0.033913   -0.015436   -0.033913
siesta:     43    0.110000   -0.006668    0.009975
siesta:     44   -0.110000   -0.009975    0.006668
siesta:     45    0.000925    0.026915    0.000925
siesta:     46   -0.008329   -0.039179   -0.008329
siesta:     47    0.009975   -0.006668    0.110000
siesta:     48    0.006668   -0.009975   -0.110000
siesta:     49    0.015436    0.033913    0.033913
siesta:     50   -0.015436   -0.033913   -0.033913
siesta:     51    0.026915    0.000925    0.000925
siesta:     52   -0.039179   -0.008329   -0.008329
siesta:     53   -0.006668    0.110000    0.009975
siesta:     54   -0.009975   -0.110000    0.006668
siesta:     55   -0.006668    0.009975    0.110000
siesta:     56   -0.009975    0.006668   -0.110000
siesta:     57   -8.125465   -8.125465   -8.125465
siesta:     58    8.125465    8.125465    8.125465
siesta:     59   -0.354629   -0.043488   -0.043488
siesta:     60    0.204910   -0.038787   -0.038787
siesta:     61   -0.043488   -0.354629   -0.043488
siesta:     62   -0.038787    0.204910   -0.038787
siesta:     63   -0.043488   -0.043488   -0.354629
siesta:     64   -0.038787   -0.038787    0.204910
siesta:     65   -0.000000    0.000000   -0.000000
siesta: ----------------------------------------
siesta:    Tot    0.000000    0.000000   -0.000000

siesta: Stress tensor (static) (eV/Ang**3):
siesta:    -0.004003   -0.008576   -0.008576
siesta:    -0.008576   -0.004003   -0.008576
siesta:    -0.008576   -0.008576   -0.004003

siesta: Cell volume =       1280.824056 Ang**3

siesta: Pressure (static):
siesta:                Solid            Molecule  Units
siesta:           0.00004360         -0.00004802  Ry/Bohr**3
siesta:           0.00400309         -0.00440929  eV/Ang**3
siesta:           6.41365595         -7.06446407  kBar
(Free)E+ p_basis*V_orbitals  =       -6857.434938
(Free)Eharris+ p_basis*V_orbitals  =       -6857.434942

cite: Please see "sih-elsi.bib" for an exhaustive BiBTeX file.
cite: Please clearly indicate Siesta version in published work: 4.0-root-345-g67246b9d8-dirty
cite: This calculation has made use of the following articles
cite: which are encouraged to be cited in a published work.
        Primary SIESTA paper
          DOI: www.doi.org/10.1088/0953-8984/14/11/302
        ELSI library interface
          DOI: www.doi.org/10.1016/j.cpc.2017.09.007
        ELPA library
          DOI: www.doi.org/10.1088/0953-8984/26/21/213201


>> End of run:  27-SEP-2023  11:25:24
Job completed
